{
  "homepage": "/",
  "title": "Download images and videos from Instagram",
  "description": "The Fastest Online Service for Downloading Photos and Videos from Instagram. Download Files to Your Phone and Computer in Just One Click!",
  "slogan": "Download photos and videos from Instagram in 1 click!",
  "label_input_link": "Link: ",
  "placeholder": "Enter link",
  "btn_go": "Go",
  "btn_download_vid": "Download video",
  "btn_download_img": "Download photo",
  "success": "File was found. You can download it:",
  "notfound": "File was not found! Wrong link.",
  "wronglink": "Wrong link! Download is allowed only from Instagram.com. Try again.",
  "block1": "Copy link to the photo or video from URL. Paste it in field and click \"Go\".",
  "block2": "You will be redirected to the page where you can download photo or video from Instagram. Click \"Download\" to save it on your computer.",
  "block3": "Enjoy!",
  "block1_alt": "download instagram photos",
  "block2_alt": "download instagram videos",
  "block3_alt": "how to save videos from instagram onto your phone",
  "how_title_1": "How to Download Photo on PC?",
  "how_text_1": "Above you can see full instruction how to download photo from Instagram onto your PC. You should copy and paste the link and click button 'Go'. The link you can get from address bar in your web-browser or select option 'Copy Share URL' in Instagram application on your phone. It is necessary to insert a link from the Instagram, and not to some other, otherwise there will be an error.",
  "how_title_2": "How to Download Videos to Phone?",
  "how_text_2": "There are no problems to download video from instagram on phone! In the Instagram application, copy the link to the video (located in the object menu (three vertical dots in the upper right corner, on the line with the user name) → Copy Share URL). Then open our service, paste it and click 'Search'. As soon as the thumbnail with the desired image appears, click download and the video will be saved in your phone.",
  "how_title_3": "Why Our Service is Best?",
  "how_text_3": "When we were creating service DownloadFromInstagram we first of all were thinking about users who will use it and make it fast and convenient. You do not need to register, everything is absolutely free and without restrictions. You can download a free photo from the instagram under any operating system: Windows, Linux or MacOS. We have a very convenient mobile version! You do not need to install any special applications for your smartphone to download photos to it, you can do it all online.",
  "how_title_4": "Download Photo and Video from Instagram from Anywhere in the World",
  "how_text_4": "Choose your language. We are constantly working on adding new languages, so you can easily download photos and videos from Instagram online. Our service is always working and available anywhere in the world and from any device, so you can download photos from Instagram online at the right time for you and at the right place. No need to register, everything is free. There are no restrictions on downloading. You can save photos and videos from Instagram though whole days! Enjoy, rejoice and tell your friends.",
  "error404": "Error 404. Such page does not exist.",
  "lang": "en",
  "en": "selected",
  "form_action": "/"
}
